^C:\USERS\NIKOL\SOURCE\REPOS\BANK_TERMINAL\BANK_TERMINAL\DEBUG\ENG_LOCALIZATION.OBJ|C:\USERS\NIKOL\SOURCE\REPOS\BANK_TERMINAL\BANK_TERMINAL\DEBUG\MAIN.OBJ|C:\USERS\NIKOL\SOURCE\REPOS\BANK_TERMINAL\BANK_TERMINAL\DEBUG\RUS_LOCALIZATION.OBJ
C:\USERS\NIKOL\SOURCE\REPOS\BANK_TERMINAL\DEBUG\BANK_TERMINAL.EXE
C:\USERS\NIKOL\SOURCE\REPOS\BANK_TERMINAL\DEBUG\BANK_TERMINAL.ILK
C:\USERS\NIKOL\SOURCE\REPOS\BANK_TERMINAL\DEBUG\BANK_TERMINAL.PDB
^Z:\C++ PROJECTS\BANK_BIT\BANK_TERMINAL\BANK_TERMINAL\DEBUG\ENG_LOCALIZATION.OBJ|Z:\C++ PROJECTS\BANK_BIT\BANK_TERMINAL\BANK_TERMINAL\DEBUG\MAIN.OBJ|Z:\C++ PROJECTS\BANK_BIT\BANK_TERMINAL\BANK_TERMINAL\DEBUG\RUS_LOCALIZATION.OBJ
Z:\C++ PROJECTS\BANK_BIT\BANK_TERMINAL\DEBUG\BANK_TERMINAL.ILK
Z:\C++ PROJECTS\BANK_BIT\BANK_TERMINAL\DEBUG\BANK_TERMINAL.EXE
Z:\C++ PROJECTS\BANK_BIT\BANK_TERMINAL\DEBUG\BANK_TERMINAL.PDB
